Division,WeightClassKg,Place,Name,Team,BodyweightKg,Best3SquatKg,Best3BenchKg,Best3DeadliftKg,TotalKg,Equipment,Event,Sex
Boys,51.71,1,Chris Vivero,Bryan,51.48,124.74,65.77,136.08,326.59,Single-ply,SBD,M
Boys,51.71,2,Cody Tunning,Montgomery,51.62,117.93,70.31,122.47,310.71,Single-ply,SBD,M
Boys,51.71,3,Grayson Danner,Conroe The Woodlands,50.98,97.52,61.23,117.93,276.69,Single-ply,SBD,M
Boys,51.71,4,Logan Green,Conroe Oak Ridge,51.17,102.06,49.9,117.93,269.89,Single-ply,SBD,M
Boys,55.79,5,David Lauderbaugh,Conroe The Woodlands,51.94,83.91,56.7,122.47,263.08,Single-ply,SBD,M
Boys,51.71,6,Ricardo Villafana,Splendora,49.44,88.45,63.5,106.59,258.55,Single-ply,SBD,M
Boys,51.71,7,Dylan Jenkins,Conroe The Woodlands,51.71,86.18,52.16,117.93,256.28,Single-ply,SBD,M
Boys,51.71,8,Ryan Kerr,Conroe Woodlands College Park,51.35,92.99,54.43,97.52,244.94,Single-ply,SBD,M
Boys,51.71,9,Axel Morfin,Conroe Woodlands College Park,42.91,56.7,43.09,81.65,181.44,Single-ply,SBD,M
Boys,59.87,1,JC Hooper,Montgomery,55.97,131.54,79.38,161.03,371.95,Single-ply,SBD,M
Boys,55.79,2,Joseph Herrera #2,Navasota,53.8,142.88,79.38,136.08,358.34,Single-ply,SBD,M
Boys,55.79,3,Garrett Kelso,Splendora,53.52,133.81,74.84,147.42,356.07,Single-ply,SBD,M
Boys,55.79,4,Cooper Houston,Montgomery,54.88,140.61,77.11,131.54,349.27,Single-ply,SBD,M
Boys,55.79,5,Lazaro Garcia,Navasota,55.66,115.67,79.38,133.81,328.85,Single-ply,SBD,M
Boys,55.79,6,Brandon Felan,Conroe Woodlands College Park,55.16,111.13,79.38,133.81,324.32,Single-ply,SBD,M
Boys,55.79,7,Matt Rice,Conroe Oak Ridge,54.98,104.33,68.04,124.74,297.1,Single-ply,SBD,M
Boys,59.87,8,Brandon Stockerl,Conroe The Woodlands,55.84,99.79,63.5,127.01,290.3,Single-ply,SBD,M
Boys,59.87,9,Mikey Roberts,Houston Cypress Woods,55.84,97.52,65.77,102.06,265.35,Single-ply,SBD,M
Boys,59.87,1,Jamahl Johnson,Houston Cypress Woods,56.43,151.95,92.99,174.63,419.57,Single-ply,SBD,M
Boys,59.87,2,Grayson Brown,Conroe The Woodlands,59.69,161.03,90.72,167.83,419.57,Single-ply,SBD,M
Boys,67.13,3,Lucas Erickson,Splendora,60.06,138.35,95.25,151.95,385.55,Single-ply,SBD,M
Boys,59.87,4,Daniel Segura,Magnolia,59.69,131.54,81.65,165.56,378.75,Single-ply,SBD,M
Boys,59.87,5,Kyle Stafford,Navasota,59.38,154.22,77.11,142.88,374.21,Single-ply,SBD,M
Boys,59.87,6,Harley Hnatek,Splendora,57.74,138.35,74.84,154.22,367.41,Single-ply,SBD,M
Boys,59.87,7,Michael Angeletti,Conroe Oak Ridge,59.38,127.01,92.99,142.88,362.87,Single-ply,SBD,M
Boys,59.87,8,Keyshawn Whitehorse,Conroe The Woodlands,58.79,117.93,65.77,145.15,328.85,Single-ply,SBD,M
Boys,59.87,9,Jacob Dodson,Navasota,56.56,104.33,81.65,106.59,292.57,Single-ply,SBD,M
Boys,74.84,1,Steven McCartha,Montgomery,67.27,210.92,136.08,195.04,542.04,Single-ply,SBD,M
Boys,67.13,2,Tyler Marcel,Conroe Oak Ridge,64.82,174.63,117.93,199.58,492.15,Single-ply,SBD,M
Boys,67.13,3,Craig Collins,Conroe The Woodlands,66.45,174.63,131.54,185.97,492.15,Single-ply,SBD,M
Boys,67.13,4,Darius Mallard,Navasota,62.14,151.95,97.52,206.38,455.86,Single-ply,SBD,M
Boys,67.13,5,Garrett Shantz,Montgomery,63.05,176.9,102.06,174.63,453.59,Single-ply,SBD,M
Boys,67.13,6,Chris Eason,Splendora,67.13,147.42,108.86,188.24,444.52,Single-ply,SBD,M
Boys,67.13,7,John-Bradley Greene,Conroe Woodlands College Park,66.22,170.1,83.91,170.1,424.11,Single-ply,SBD,M
Boys,67.13,8,Dylan Heaton,Montgomery,64.23,142.88,106.59,158.76,408.23,Single-ply,SBD,M
Boys,74.84,9,Brad Bentley,Conroe The Woodlands,67.22,149.69,92.99,165.56,408.23,Single-ply,SBD,M
Boys,67.13,10,Hector Larios,Houston Cypress Woods,66.54,161.03,90.72,151.95,403.7,Single-ply,SBD,M
Boys,67.13,11,Peter Garza,Houston Cypress Woods,64.05,158.76,83.91,151.95,394.63,Single-ply,SBD,M
Boys,67.13,12,Cameron Gray,Navasota,61.87,136.08,77.11,176.9,390.09,Single-ply,SBD,M
Boys,67.13,13,Caleb Hall,Montgomery,61.87,149.69,74.84,147.42,371.95,Single-ply,SBD,M
Boys,74.84,14,Edward Yao,Conroe The Woodlands,67.36,131.54,79.38,138.35,349.27,Single-ply,SBD,M
Boys,67.13,15,Zach Hawkins,Conroe The Woodlands,64.14,117.93,92.99,127.01,337.93,Single-ply,SBD,M
Boys,74.84,1,Franteric Powell,Navasota,67.77,204.12,113.4,208.65,526.17,Single-ply,SBD,M
Boys,74.84,2,Kyle Oswald,Houston Cypress Woods,74.48,183.7,124.74,206.38,514.83,Single-ply,SBD,M
Boys,82.1,3,Shak Long,Dayton,74.98,174.63,115.67,206.38,496.68,Single-ply,SBD,M
Boys,74.84,4,Jarel Jones,Houston Cypress Woods,73.12,183.7,113.4,183.7,480.81,Single-ply,SBD,M
Boys,74.84,5,Matt Mitchel,Conroe Oak Ridge,71.4,181.44,106.59,190.51,478.54,Single-ply,SBD,M
Boys,74.84,6,Jake Vanhowten,Magnolia,73.48,165.56,133.81,179.17,478.54,Single-ply,SBD,M
Boys,74.84,7,Colton Wetuski,Montgomery,72.89,183.7,99.79,190.51,474,Single-ply,SBD,M
Boys,74.84,8,Frankie DeLeon,Navasota,73.03,185.97,102.06,181.44,469.47,Single-ply,SBD,M
Boys,74.84,9,Tristan Horton,Conroe The Woodlands,74.8,149.69,102.06,210.92,462.66,Single-ply,SBD,M
Boys,74.84,10,Travis Caudill,Magnolia,74.84,176.9,97.52,188.24,462.66,Single-ply,SBD,M
Boys,82.1,11,Austin Cude,Navasota,74.98,167.83,111.13,183.7,462.66,Single-ply,SBD,M
Boys,74.84,12,Brayson Boyde,Magnolia,71.67,170.1,115.67,170.1,455.86,Single-ply,SBD,M
Boys,82.1,13,Drew Axelrod,Montgomery,75.02,174.63,95.25,183.7,453.59,Single-ply,SBD,M
Boys,74.84,14,James Toups,Conroe The Woodlands,73.21,172.37,104.33,161.03,437.72,Single-ply,SBD,M
Boys,74.84,15,Adam May,Conroe The Woodlands,71.89,167.83,95.25,165.56,428.64,Single-ply,SBD,M
Boys,74.84,16,Neal Russel,Conroe Woodlands College Park,67.59,142.88,90.72,163.29,396.89,Single-ply,SBD,M
Boys,74.84,17,Tony Tapia,Conroe Woodlands College Park,74.53,151.95,95.25,138.35,385.55,Single-ply,SBD,M
Boys,74.84,18,Dustin Baranowski,Conroe The Woodlands,71.53,131.54,83.91,154.22,369.68,Single-ply,SBD,M
Boys,74.84,19,Jonathan Hayes,Conroe Woodlands College Park,74.03,151.95,92.99,,244.94,Single-ply,SB,M
Boys,74.84,20,Anthony Acosta,Navasota,69.44,77.11,61.23,104.33,242.67,Single-ply,SBD,M
Boys,82.1,1,Carson Neal,Montgomery,78.02,199.58,131.54,195.04,526.17,Single-ply,SBD,M
Boys,82.1,2,Daniel Douglas,Dayton,79.47,204.12,111.13,204.12,519.36,Single-ply,SBD,M
Boys,82.1,3,Damiyon Harris,Conroe,80.33,204.12,111.13,190.51,505.76,Single-ply,SBD,M
Boys,89.81,4,Jonothan Voltair,Conroe Oak Ridge,82.15,167.83,117.93,204.12,489.88,Single-ply,SBD,M
Boys,82.1,5,Cody Mullens,Montgomery,78.74,183.7,120.2,181.44,485.34,Single-ply,SBD,M
Boys,82.1,6,Brandon McBride,Dayton,78.02,183.7,106.59,179.17,469.47,Single-ply,SBD,M
Boys,82.1,7,Maison Jacobs,Splendora,81.65,181.44,102.06,165.56,449.06,Single-ply,SBD,M
Boys,89.81,8,Austin DeGola,Magnolia,82.15,161.03,102.06,170.1,433.18,Single-ply,SBD,M
Boys,82.1,9,Kyle Brennan,Conroe The Woodlands,79.47,145.15,90.72,158.76,394.63,Single-ply,SBD,M
Boys,82.1,10,Josh Kiser,Conroe The Woodlands,77.11,131.54,81.65,176.9,390.09,Single-ply,SBD,M
Boys,89.81,11,Jacob Wallace #2,Conroe The Woodlands,82.19,145.15,83.91,158.76,387.82,Single-ply,SBD,M
Boys,82.1,12,Noah Fletcher,Conroe Woodlands College Park,76.79,149.69,90.72,140.61,381.02,Single-ply,SBD,M
Boys,89.81,1,Howard Horn,Navasota,88.99,213.19,142.88,247.21,603.28,Single-ply,SBD,M
Boys,89.81,2,George Stephenson,Conroe Oak Ridge,88.77,256.28,120.2,222.26,598.74,Single-ply,SBD,M
Boys,89.81,3,Jason Paul,Conroe Woodlands College Park,87.91,247.21,136.08,210.92,594.21,Single-ply,SBD,M
Boys,89.81,4,Sam Garza,Montgomery,85.73,226.8,147.42,206.38,580.6,Single-ply,SBD,M
Boys,89.81,5,Desmond Calhoun,Navasota,89.77,204.12,113.4,260.82,578.33,Single-ply,SBD,M
Boys,89.81,6,Toney Robinson,Dayton,82.55,222.26,124.74,226.8,573.79,Single-ply,SBD,M
Boys,89.81,7,Nick Csatlos,Houston Cypress Woods,87.59,197.31,92.99,208.65,498.95,Single-ply,SBD,M
Boys,89.81,8,Marquez Byrd,Navasota,86.82,195.04,95.25,204.12,494.42,Single-ply,SBD,M
Boys,89.81,9,Caleb Matthews,Conroe,89.4,167.83,115.67,192.78,476.27,Single-ply,SBD,M
Boys,89.81,10,Rene Troche-Baez,Conroe The Woodlands,89.09,145.15,81.65,183.7,410.5,Single-ply,SBD,M
Boys,89.81,11,Dustin Wolf,Conroe The Woodlands,88.77,133.81,97.52,151.95,383.29,Single-ply,SBD,M
Boys,89.81,12,Chris Jansen,Conroe The Woodlands,85.59,133.81,74.84,138.35,347,Single-ply,SBD,M
Boys,99.79,1,Mitchell Fountain,Conroe The Woodlands,96.8,294.84,170.1,288.03,752.96,Single-ply,SBD,M
Boys,99.79,2,Cory Goosby,Bryan,97.34,249.48,140.61,238.14,628.23,Single-ply,SBD,M
Boys,99.79,3,Chad Murski,Conroe Woodlands College Park,98.25,242.67,142.88,231.33,616.89,Single-ply,SBD,M
Boys,99.79,4,Jeremy Orange,Houston Cypress Woods,99.47,226.8,115.67,215.46,557.92,Single-ply,SBD,M
Boys,99.79,5,Justin Edwards,Conroe Oak Ridge,97.66,217.72,124.74,213.19,555.65,Single-ply,SBD,M
Boys,99.79,6,Spencer Nigh,Magnolia,96.34,183.7,138.35,188.24,510.29,Single-ply,SBD,M
Boys,99.79,7,Zach Kapalski,Dayton,98.7,204.12,108.86,190.51,503.49,Single-ply,SBD,M
Boys,99.79,8,Wyatt Chalmers,Montgomery,97.75,181.44,117.93,201.85,501.22,Single-ply,SBD,M
Boys,99.79,9,Justin Trow,Montgomery,98.16,195.04,106.59,197.31,498.95,Single-ply,SBD,M
Boys,99.79,10,Aaron Hopper,Conroe The Woodlands,98.7,188.24,99.79,197.31,485.34,Single-ply,SBD,M
Boys,99.79,11,David Ramirez,Navasota,95.75,195.04,104.33,176.9,476.27,Single-ply,SBD,M
Boys,99.79,12,Derrick Wagoner,Conroe,91.26,183.7,95.25,183.7,462.66,Single-ply,SBD,M
Boys,99.79,13,Cody Brown #6,Conroe,94.85,188.24,90.72,179.17,458.13,Single-ply,SBD,M
Boys,99.79,14,Charles Cavanaugh,Navasota,97.98,163.29,95.25,181.44,439.98,Single-ply,SBD,M
Boys,99.79,15,Corey Sanders,Conroe The Woodlands,90.76,142.88,106.59,181.44,430.91,Single-ply,SBD,M
Boys,99.79,16,Brandon Barnett,Conroe The Woodlands,96.34,158.76,102.06,170.1,430.91,Single-ply,SBD,M
Boys,99.79,17,Dorian Meyers,Navasota,92.8,158.76,95.25,154.22,408.23,Single-ply,SBD,M
Boys,109.77,1,Justin Latanero,Conroe Oak Ridge,104.64,258.55,170.1,235.87,664.51,Single-ply,SBD,M
Boys,109.77,DQ,Charles Tousant,Dayton,108.41,,,,,Single-ply,SBD,M
Boys,124.74,3,Dustin Castleberry,Montgomery,109.95,226.8,142.88,226.8,596.47,Single-ply,SBD,M
Boys,109.77,4,Jamal Kinard,Houston Cypress Woods,108.95,226.8,111.13,238.14,576.06,Single-ply,SBD,M
Boys,109.77,5,Erik Medina,Conroe Woodlands College Park,108.5,215.46,131.54,226.8,573.79,Single-ply,SBD,M
Boys,109.77,6,Sam Grubbs #2,Conroe Woodlands College Park,106.23,215.46,117.93,190.51,523.9,Single-ply,SBD,M
Boys,109.77,7,Joshua Miller,Montgomery,105.05,181.44,120.2,197.31,498.95,Single-ply,SBD,M
Boys,109.77,8,Brandon Brock,Montgomery,103.96,174.63,127.01,188.24,489.88,Single-ply,SBD,M
Boys,109.77,9,Miguel Fabela,Conroe,101.7,174.63,117.93,188.24,480.81,Single-ply,SBD,M
Boys,109.77,10,Cole Kennedy,Conroe The Woodlands,103.42,158.76,106.59,158.76,424.11,Single-ply,SBD,M
Boys,109.77,11,Chris Martin,Splendora,104.33,102.06,74.84,86.18,263.08,Single-ply,SBD,M
Boys,124.74,DQ,Michael Cadena,Bryan,121.38,,,,,Single-ply,SBD,M
Boys,124.74,2,Marquise White,Houston Cypress Woods,118.93,260.82,147.42,238.14,646.37,Single-ply,SBD,M
Boys,124.74,DQ,Blake Teasdale,Montgomery,119.29,,,,,Single-ply,SBD,M
Boys,124.74,4,Will Demmings,Conroe,115.58,242.67,138.35,206.38,587.4,Single-ply,SBD,M
Boys,124.74,5,Grant Bonnette,Conroe The Woodlands,116.66,226.8,142.88,199.58,569.26,Single-ply,SBD,M
Boys,124.74,6,Cory Ross,Navasota,117.03,190.51,149.69,192.78,532.97,Single-ply,SBD,M
Boys,124.74,7,Jacob Jaimes,Conroe Oak Ridge,116.07,195.04,127.01,195.04,517.1,Single-ply,SBD,M
Boys,124.74,8,Jonathan Hall,Conroe,120.25,192.78,97.52,197.31,487.61,Single-ply,SBD,M
Boys,124.74,9,TJ Anderson,Conroe,117.75,179.17,102.06,185.97,467.2,Single-ply,SBD,M
Boys,124.74+,1,Jordan Wells,Navasota,126.64,276.69,185.97,276.69,739.36,Single-ply,SBD,M
Boys,124.74+,2,Kevin Butts,Conroe The Woodlands,139.8,204.12,197.31,222.26,623.69,Single-ply,SBD,M
Boys,124.74+,3,Osiel Cerna,Magnolia,132.9,247.21,147.42,213.19,607.81,Single-ply,SBD,M
Boys,124.74+,4,Tyler Rapp,Conroe The Woodlands,125.33,206.38,154.22,215.46,576.06,Single-ply,SBD,M
Boys,124.74+,5,Trevin Pomier,Navasota,179.62,226.8,127.01,208.65,562.45,Single-ply,SBD,M
Boys,124.74+,6,Darius Celestine,Conroe Oak Ridge,129.05,204.12,140.61,215.46,560.19,Single-ply,SBD,M
Boys,124.74+,7,Stephen Jaurez,Dayton,130,201.85,147.42,199.58,548.85,Single-ply,SBD,M
Boys,124.74+,8,Brandon Jones #5,Montgomery,145.6,210.92,106.59,190.51,508.02,Single-ply,SBD,M
Boys,124.74+,9,Edward Cook,Montgomery,129.91,190.51,127.01,188.24,505.76,Single-ply,SBD,M
Boys,124.74+,10,Michael DeJournett,Conroe Woodlands College Park,128,192.78,113.4,183.7,489.88,Single-ply,SBD,M
