Division,WeightClassKg,Place,Name,Team,BodyweightKg,Best3SquatKg,Best3BenchKg,Best3DeadliftKg,TotalKg,Equipment,Event,Sex
Boys,51.71,1,Grayson Danner,Conroe The Woodlands,51.03,97.52,58.97,117.93,274.42,Single-ply,SBD,M
Boys,51.71,2,Ross Cowart,Huntsville,50.08,77.11,61.23,120.2,258.55,Single-ply,SBD,M
Boys,51.71,3,Ricardo Villafana,Splendora,49.03,81.65,58.97,99.79,240.4,Single-ply,SBD,M
Boys,51.71,4,Noah Courvelle,Shepherd,40.42,68.04,40.82,86.18,195.04,Single-ply,SBD,M
Boys,59.87,1,JC Hooper,Montgomery,55.97,124.74,77.11,147.42,349.27,Single-ply,SBD,M
Boys,55.79,2,Terry Barnes,Willis,55.34,113.4,79.38,131.54,324.32,Single-ply,SBD,M
Boys,55.79,3,Cody Tunning,Montgomery,52.12,120.2,65.77,124.74,310.71,Single-ply,SBD,M
Boys,55.79,4,Pyno Poul,Shepherd,54.88,108.86,68.04,124.74,301.64,Single-ply,SBD,M
Boys,55.79,5,Javier Vela,Shepherd,55.47,90.72,68.04,124.74,283.5,Single-ply,SBD,M
Boys,55.79,6,Kody Quibodeaux,Shepherd,55.79,102.06,65.77,111.13,278.96,Single-ply,SBD,M
Boys,55.79,7,Dillan Silivas,New Waverly,53.89,104.33,56.7,111.13,272.16,Single-ply,SBD,M
Boys,55.79,8,Ryan Collette,Huffman Hargrave,52.93,102.06,61.23,106.59,269.89,Single-ply,SBD,M
Boys,55.79,9,Brett Sangster,Shepherd,54.07,90.72,58.97,108.86,258.55,Single-ply,SBD,M
Boys,55.79,10,David Lauderbaugh,Conroe The Woodlands,55.75,79.38,56.7,117.93,254.01,Single-ply,SBD,M
Boys,59.87,1,Jeremy Charles,Willis,56.97,158.76,111.13,165.56,435.45,Single-ply,SBD,M
Boys,59.87,2,Grayson Brown,Conroe The Woodlands,59.1,158.76,81.65,154.22,394.63,Single-ply,SBD,M
Boys,59.87,3,Lucas Erickson,Splendora,58.88,133.81,90.72,147.42,371.95,Single-ply,SBD,M
Boys,59.87,4,Daniel Langlois,Huffman Hargrave,58.33,106.59,106.59,108.86,322.05,Single-ply,SBD,M
Boys,59.87,5,Tyler Idom,New Caney Porter,59.87,113.4,72.57,124.74,310.71,Single-ply,SBD,M
Boys,67.13,1,Steven McCartha,Montgomery,66.22,192.78,131.54,181.44,505.76,Single-ply,SBD,M
Boys,74.84,2,Josh Courvelle,Shepherd,67.22,174.63,111.13,185.97,471.74,Single-ply,SBD,M
Boys,67.13,3,Nate Jones,Shepherd,62.87,174.63,106.59,183.7,464.93,Single-ply,SBD,M
Boys,67.13,4,Garrett Shantz,Montgomery,62.69,151.95,92.99,181.44,426.38,Single-ply,SBD,M
Boys,67.13,5,Rory Jefferson,Huntsville,62.32,145.15,86.18,163.29,394.63,Single-ply,SBD,M
Boys,67.13,6,Cesar Marroquin,Huffman Hargrave,66.32,142.88,90.72,136.08,369.68,Single-ply,SBD,M
Boys,67.13,7,Austin Fry,Huffman Hargrave,65.95,122.47,90.72,142.88,356.07,Single-ply,SBD,M
Boys,67.13,8,Logan Blackburn,Huffman Hargrave,63.37,120.2,72.57,147.42,340.19,Single-ply,SBD,M
Boys,67.13,9,Clay Ballard,Shepherd,62.87,115.67,61.23,111.13,288.03,Single-ply,SBD,M
Boys,67.13,DQ,Humberto Avila,Huntsville,63.32,102.06,,,,Single-ply,SBD,M
Boys,67.13,DQ,Edward Yao,Conroe The Woodlands,66.86,131.54,,,,Single-ply,SBD,M
Boys,67.13,DQ,Chris Eason,Splendora,66,142.88,,,,Single-ply,SBD,M
Boys,82.1,1,Aj Box,Shepherd,74.93,190.51,136.08,183.7,510.29,Single-ply,SBD,M
Boys,74.84,2,Ritchie Lyttle,New Caney Porter,70.62,183.7,113.4,190.51,487.61,Single-ply,SBD,M
Boys,74.84,3,Colton Wetuski,Montgomery,73.16,176.9,95.25,181.44,453.59,Single-ply,SBD,M
Boys,74.84,4,Drew Axelrod,Montgomery,74.25,170.1,88.45,181.44,439.98,Single-ply,SBD,M
Boys,74.84,5,Broch Saxton,New Waverly,68.31,158.76,104.33,174.63,437.72,Single-ply,SBD,M
Boys,74.84,6,James Toups,Conroe The Woodlands,72.35,154.22,102.06,158.76,415.04,Single-ply,SBD,M
Boys,74.84,7,Mack Palmer,Saratoga West Hardin,69.94,129.27,102.06,174.63,405.97,Single-ply,SBD,M
Boys,74.84,8,Adam May,Conroe The Woodlands,71.4,158.76,88.45,158.76,405.97,Single-ply,SBD,M
Boys,74.84,9,Colton Lilley,Shepherd,72.8,142.88,104.33,151.95,399.16,Single-ply,SBD,M
Boys,74.84,10,Dylan Jones,Willis,70.67,120.2,97.52,174.63,392.36,Single-ply,SBD,M
Boys,74.84,11,Travis Anderson,Crosby,73.62,129.27,97.52,165.56,392.36,Single-ply,SBD,M
Boys,74.84,12,Brad Bentley,Conroe The Woodlands,67.45,136.08,88.45,165.56,390.09,Single-ply,SBD,M
Boys,74.84,13,Payton Mellor,Montgomery,74.25,124.74,102.06,145.15,371.95,Single-ply,SBD,M
Boys,74.84,14,Zac Thomas,Shepherd,72.62,131.54,83.91,145.15,360.61,Single-ply,SBD,M
Boys,74.84,15,Luis Galaga,Willis,72.76,131.54,79.38,142.88,353.8,Single-ply,SBD,M
Boys,74.84,16,Dustin Baranowski,Conroe The Woodlands,70.26,122.47,77.11,147.42,347,Single-ply,SBD,M
Boys,74.84,17,Trey Penrod,Willis,71.8,111.13,74.84,138.35,324.32,Single-ply,SBD,M
Boys,74.84,18,Mason Calhoun,Montgomery,72.71,113.4,74.84,127.01,315.25,Single-ply,SBD,M
Boys,74.84,DQ,Royce See,Shepherd,74.3,136.08,,,,Single-ply,SBD,M
Boys,74.84,DQ,Deonte Skinner,Shepherd,73.03,,,,,Single-ply,SBD,M
Boys,82.1,DQ,Evan Goocher,Willis,75.02,,,,,Single-ply,SBD,M
Boys,82.1,1,Arthur Maxwell,Shepherd,78.38,247.21,131.54,222.26,601.01,Single-ply,SBD,M
Boys,82.1,2,Kyle Leal,Crosby,79.61,226.8,133.81,219.99,580.6,Single-ply,SBD,M
Boys,89.81,3,Blake Wright,Crosby,82.28,192.78,106.59,217.72,517.1,Single-ply,SBD,M
Boys,82.1,4,Myles Ash,Shepherd,81.65,151.95,129.27,188.24,469.47,Single-ply,SBD,M
Boys,82.1,5,Cody Mullens,Montgomery,77.56,176.9,120.2,170.1,467.2,Single-ply,SBD,M
Boys,82.1,6,Dave Bagwell,New Caney Porter,76.88,165.56,99.79,183.7,449.06,Single-ply,SBD,M
Boys,82.1,7,Maison Jacobs,Splendora,80.06,181.44,90.72,158.76,430.91,Single-ply,SBD,M
Boys,82.1,8,Keathan Johnson,Shepherd,78.56,149.69,86.18,158.76,394.63,Single-ply,SBD,M
Boys,82.1,9,Colby Clark,Shepherd,80.83,147.42,97.52,147.42,392.36,Single-ply,SBD,M
Boys,82.1,10,Jacob Wallace #2,Conroe The Woodlands,80.06,136.08,81.65,156.49,374.21,Single-ply,SBD,M
Boys,82.1,11,Kyle Brennan,Conroe The Woodlands,77.25,122.47,86.18,149.69,358.34,Single-ply,SBD,M
Boys,82.1,12,Luis Chavez,Willis,80.51,117.93,65.77,140.61,324.32,Single-ply,SBD,M
Boys,82.1,13,Herbie Mills,Willis,76.34,106.59,61.23,147.42,315.25,Single-ply,SBD,M
Boys,82.1,DQ,Austin Miller #8,Willis,78.24,99.79,,,,Single-ply,SBD,M
Boys,82.1,DQ,Donovon Orosco,Huffman Hargrave,76.57,142.88,,,,Single-ply,SBD,M
Boys,82.1,DQ,Trinity Lawrence,Huntsville,80.92,97.52,,,,Single-ply,SBD,M
Boys,99.79,1,Val Hernandez,Crosby,89.86,242.67,147.42,233.6,623.69,Single-ply,SBD,M
Boys,99.79,2,Chase Nix,Crosby,89.95,219.99,133.81,217.72,571.53,Single-ply,SBD,M
Boys,89.81,3,Benji Meche,Crosby,84.64,215.46,140.61,199.58,555.65,Single-ply,SBD,M
Boys,89.81,4,Dustin Hoeffler,New Caney Porter,88.18,181.44,129.27,188.24,498.95,Single-ply,SBD,M
Boys,89.81,5,Shane Lummus,Huffman Hargrave,82.74,158.76,102.06,192.78,453.59,Single-ply,SBD,M
Boys,89.81,6,Kevin Stephens,Shepherd,88.54,131.54,83.91,181.44,396.89,Single-ply,SBD,M
Boys,89.81,7,Rene Troche-Baez,Conroe The Woodlands,87.68,142.88,81.65,170.1,394.63,Single-ply,SBD,M
Boys,99.79,8,Everett Stevenson,Shepherd,89.86,154.22,72.57,140.61,367.41,Single-ply,SBD,M
Boys,89.81,9,Matt Frazier,Huffman Hargrave,82.78,111.13,92.99,149.69,353.8,Single-ply,SBD,M
Boys,99.79,1,Mitchell Fountain,Conroe The Woodlands,98.07,272.16,165.56,265.35,703.07,Single-ply,SBD,M
Boys,99.79,2,Zac Adams,Splendora,93.67,213.19,113.4,215.46,542.04,Single-ply,SBD,M
Boys,99.79,3,Jheidi Johnson,Huntsville,98.02,188.24,108.86,183.7,480.81,Single-ply,SBD,M
Boys,99.79,4,Wyatt Chalmers,Montgomery,97.89,170.1,111.13,190.51,471.74,Single-ply,SBD,M
Boys,99.79,5,Aaron Hopper,Conroe The Woodlands,99.47,172.37,99.79,199.58,471.74,Single-ply,SBD,M
Boys,99.79,6,Philip Holden,Shepherd,93.17,174.63,102.06,190.51,467.2,Single-ply,SBD,M
Boys,99.79,7,David Salee,New Waverly,99.65,145.15,102.06,158.76,405.97,Single-ply,SBD,M
Boys,99.79,DQ,Cody Carpenter,Willis,95.75,167.83,,,,Single-ply,SBD,M
Boys,109.77,1,Tremonte Green,Crosby,106.5,249.48,170.1,247.21,666.78,Single-ply,SBD,M
Boys,109.77,2,Parker Blount,Huntsville,109.68,276.69,151.95,217.72,646.37,Single-ply,SBD,M
Boys,109.77,3,Luis Cruz,Shepherd,109.77,233.6,124.74,222.26,580.6,Single-ply,SBD,M
Boys,109.77,4,Trevor Daniels,Huffman Hargrave,104.42,195.04,106.59,195.04,496.68,Single-ply,SBD,M
Boys,109.77,5,Nathan Ramon,Huntsville,104.69,183.7,111.13,201.85,496.68,Single-ply,SBD,M
Boys,109.77,6,Aaron Cunningham,Huffman Hargrave,109.5,190.51,108.86,188.24,487.61,Single-ply,SBD,M
Boys,109.77,7,Justin Franklin,New Caney Porter,108.05,206.38,131.54,147.42,485.34,Single-ply,SBD,M
Boys,109.77,8,Justin Graham,New Waverly,107,151.95,83.91,185.97,421.84,Single-ply,SBD,M
Boys,109.77,9,Cole Kennedy,Conroe The Woodlands,102.97,149.69,104.33,151.95,405.97,Single-ply,SBD,M
Boys,109.77,10,Chris Martin,Splendora,102.74,106.59,70.31,79.38,256.28,Single-ply,SBD,M
Boys,124.74,DQ,Tyler Horbetz,Willis,109.86,74.84,,,,Single-ply,SBD,M
Boys,124.74,1,Joshua Opiela,Crosby,122.02,260.82,142.88,215.46,619.15,Single-ply,SBD,M
Boys,124.74,2,Joe Ogrodwoicz,Willis,115.21,219.99,122.47,217.72,560.19,Single-ply,SBD,M
Boys,124.74,3,Jacoby Callahan,New Caney Porter,112.22,204.12,129.27,206.38,539.77,Single-ply,SBD,M
Boys,124.74,4,Robert Ryan,Saratoga West Hardin,110.45,174.63,113.4,199.58,487.61,Single-ply,SBD,M
Boys,124.74,5,Jessie Basham,Saratoga West Hardin,114.89,161.03,83.91,172.37,417.3,Single-ply,SBD,M
Boys,124.74,6,Chance Hickman,Saratoga West Hardin,117.21,129.27,65.77,154.22,349.27,Single-ply,SBD,M
Boys,124.74+,1,Edward Cook,Montgomery,129.14,183.7,129.27,188.24,501.22,Single-ply,SBD,M
Boys,124.74+,2,Brandon Jones #5,Montgomery,142.75,204.12,104.33,181.44,489.88,Single-ply,SBD,M
Boys,124.74+,3,Matthew Wilson,Saratoga West Hardin,128.68,170.1,95.25,165.56,430.91,Single-ply,SBD,M
Boys,124.74+,4,Casey Cress,Willis,126.92,161.03,102.06,158.76,421.84,Single-ply,SBD,M
Boys,124.74+,5,Cody Jackson,New Waverly,144.74,145.15,102.06,136.08,383.29,Single-ply,SBD,M
Boys,124.74+,DQ,Tony Russell,New Waverly,129.46,183.7,,,,Single-ply,SBD,M
