Division,WeightClassKg,Place,Name,Team,BodyweightKg,Best3SquatKg,Best3BenchKg,Best3DeadliftKg,TotalKg,Equipment,Event,Sex,BirthDate
Boys,51.71,1,Keegan Mantanona,Salado,50.71,120.2,70.31,122.47,312.98,Single-ply,SBD,M,
Boys,51.71,2,Cooper Schiller,Rogers,49.17,120.2,65.77,122.47,308.44,Single-ply,SBD,M,
Boys,59.87,1,Alex Vargas,Rogers,58.42,154.22,90.72,136.08,381.02,Single-ply,SBD,M,
Boys,59.87,2,Gavin Cruz,Holland,58.97,102.06,52.16,113.4,267.62,Single-ply,SBD,M,
Boys,67.13,1,Bryan Thuy,Rogers,66.09,156.49,86.18,154.22,396.89,Single-ply,SBD,M,
Boys,67.13,2,Edgar de la Torre,Holland,64.41,124.74,61.23,147.42,333.39,Single-ply,SBD,M,
Boys,67.13,3,Seth Jayaprabhu,Holland,62.6,142.88,,136.08,278.96,Single-ply,SD,M,
Boys,67.13,4,Kye Hayes,Salado,65.91,,86.18,158.76,244.94,Single-ply,BD,M,
Boys,74.84,1,John Hill,Rogers,72.03,204.12,115.67,204.12,523.9,Single-ply,SBD,M,
Boys,74.84,2,Scott Cooper,Salado,74.21,165.56,97.52,163.29,426.38,Single-ply,SBD,M,
Boys,74.84,3,Braydon Sumners,Salado,74.53,151.95,111.13,156.49,419.57,Single-ply,SBD,M,
Boys,74.84,4,Aydin Keating,Salado,69.4,138.35,83.91,158.76,381.02,Single-ply,SBD,M,
Boys,74.84,5,Ryland Woods,Salado,71.49,115.67,61.23,129.27,306.17,Single-ply,SBD,M,
Boys,82.1,1,Ethan Rendon,Holland,81.65,192.78,117.93,199.58,510.29,Single-ply,SBD,M,
Boys,82.1,2,Cooper Carroll,Salado,78.2,183.7,97.52,183.7,464.93,Single-ply,SBD,M,
Boys,82.1,3,Josh Whisenhunt,Holland,80.74,181.44,115.67,156.49,453.59,Single-ply,SBD,M,
Boys,82.1,4,Albert Martinez,Holland,78.47,158.76,90.72,170.1,419.57,Single-ply,SBD,M,
Boys,82.1,5,Clayton Baggerly,Holland,76.66,136.08,90.72,149.69,376.48,Single-ply,SBD,M,
Boys,89.81,1,Jc Chaney,Holland,89.36,226.8,138.35,215.46,580.6,Single-ply,SBD,M,
Boys,89.81,2,Jayten Burt,Salado,89.4,192.78,117.93,183.7,494.42,Single-ply,SBD,M,
Boys,89.81,3,Waylon Padleski,Salado,83.05,183.7,113.4,170.1,467.2,Single-ply,SBD,M,
Boys,89.81,4,Colton Cargill,Holland,85.73,158.76,83.91,181.44,424.11,Single-ply,SBD,M,
Boys,89.81,5,Jaxson Leiskau,Salado,89.13,156.49,86.18,170.1,412.77,Single-ply,SBD,M,
Boys,89.81,6,Javier Hernandez,Holland,86.18,136.08,97.52,161.03,394.63,Single-ply,SBD,M,
Boys,89.81,7,Cavahn Wilson,Salado,85.96,138.35,79.38,149.69,367.41,Single-ply,SBD,M,
Boys,89.81,8,Dillon Combs,Salado,83.05,149.69,79.38,131.54,360.61,Single-ply,SBD,M,
Boys,99.79,1,Mason Davis,Rogers,96.66,244.94,129.27,226.8,601.01,Single-ply,SBD,M,
Boys,99.79,2,Aiden Wilson,Salado,92.58,226.8,127.01,215.46,569.26,Single-ply,SBD,M,
Boys,99.79,3,Dray McLane,Salado,98.11,195.04,111.13,183.7,489.88,Single-ply,SBD,M,
Boys,99.79,4,Blake Volk,Salado,91.63,185.97,124.74,149.69,460.4,Single-ply,SBD,M,
Boys,99.79,5,Rj Dolgener,Rogers,97.98,181.44,102.06,176.9,460.4,Single-ply,SBD,M,
Boys,99.79,6,Jaime Reyna,Rogers,92.49,172.37,92.99,165.56,430.91,Single-ply,SBD,M,
Boys,109.77,1,Beau Hill,Salado,107.68,204.12,117.93,174.63,496.68,Single-ply,SBD,M,
Boys,109.77,2,Garrett Combs,Salado,104.78,147.42,97.52,170.1,415.04,Single-ply,SBD,M,
Boys,124.74,1,Avery Womack,Salado,116.26,254.01,163.29,238.14,655.44,Single-ply,SBD,M,
Boys,124.74,2,Tyler Shelton,Rogers,112.94,176.9,99.79,176.9,453.59,Single-ply,SBD,M,
Boys,124.74,3,Kade Hayes,Salado,114.8,158.76,106.59,158.76,424.11,Single-ply,SBD,M,
Boys,124.74,4,Ethan Glenn,Rogers,114.21,131.54,68.04,113.4,312.98,Single-ply,SBD,M,
Boys,139.71,1,Marshall Mays,Holland,138.35,235.87,156.49,231.33,623.69,Single-ply,SBD,M,
Boys,139.71,2,Gavyn Keyser,Salado,134.99,229.06,174.63,217.72,621.42,Single-ply,SBD,M,
