Place,Name,State,WeightClassKg,BodyweightKg,BirthDate,Age,Squat1Kg,Squat2Kg,Squat3Kg,Best3SquatKg,Bench1Kg,Bench2Kg,Bench3Kg,Best3BenchKg,Deadlift1Kg,Deadlift2Kg,Deadlift3Kg,Best3DeadliftKg,TotalKg,Event,Equipment,Sex,Division
1,Karlie Bennett,OR,48,46,,13,40,-47.5,55,55,27.5,35,-37.5,35,45,55,62.5,62.5,152.5,SBD,Raw,F,Juniors 13-15
1,Mataya Straka,WA,67.5,67.5,,14,125,-137.5,137.5,137.5,65,70,-75,70,150,-155,,150,357.5,SBD,Raw,F,Juniors 13-15
1,Tyara Straka,WA,90+,107.7,,16,197.5,205,210,210,122.5,-132.5,-132.5,122.5,220,230,,230,562.5,SBD,Raw,F,Juniors 16-17
1,Karlie Bennett,OR,48,46,,13,40,-47.5,55,55,27.5,35,-37.5,35,45,55,62.5,62.5,152.5,SBD,Raw,F,Open
1,Ashley Johnson,ID,60,57.4,,27,85,90,95,95,57.5,-60,-60,57.5,105,110,-117.5,110,262.5,SBD,Raw,F,Open
1,Pita German,OR,75,70.4,,26,82.5,100,107.5,107.5,55,60,-65,60,120,-130,-142.5,120,287.5,SBD,Raw,F,Open
1,Cindy Slone-Martin,OR,82.5,81.8,,41,182.5,-187.5,,182.5,97.5,102.5,105,105,192.5,205,-212.5,205,492.5,SBD,Raw,F,Open
2,Naomi Corona,ID,82.5,81,,34,82.5,95,105,105,82.5,-87.5,87.5,87.5,132.5,142.5,150,150,342.5,SBD,Raw,F,Open
1,Karla Machuca,OR,90,86.8,,36,80,-92.5,92.5,92.5,40,47.5,-57.5,47.5,120,127.5,-137.5,127.5,267.5,SBD,Raw,F,Submasters 35-39
1,Buffy Bennett,OR,67.5,66.5,,46,82.5,95,-105,95,57.5,60,62.5,62.5,110,125,-137.5,125,282.5,SBD,Raw,F,Masters 45-49
1,Cindy Slone-Martin,OR,82.5,81.8,,41,182.5,-187.5,,182.5,97.5,102.5,105,105,192.5,205,-212.5,205,492.5,SBD,Raw,F,Masters 40-44
1,Brandi Neill,OR,90+,98.4,,43,87.5,-97.5,97.5,97.5,60,-67.5,75,75,140,152.5,-160,152.5,325,SBD,Raw,F,Masters 40-44
1,Jon Steven Fox Jr,OR,52,51,,14,42.5,52.5,57.5,57.5,30,32.5,-35,32.5,55,62.5,75,75,165,SBD,Raw,M,Juniors 13-15
1,Steven Reynolds,OR,67.5,63.4,,16,50,70,87.5,87.5,55,57.5,-67.5,57.5,102.5,112.5,-122.5,112.5,257.5,SBD,Raw,M,Juniors 16-17
1,Andrew DeLeon,AL,67.5,62.5,,22,-147.5,-147.5,147.5,147.5,77.5,82.5,-85,82.5,165,182.5,195,195,425,SBD,Raw,M,Juniors 20-23
1,Jj Marines,OR,82.5,81.8,,16,150,167.5,-192.5,167.5,85,92.5,100,100,177.5,205,215,215,482.5,SBD,Raw,M,Juniors 16-17
1,Austin Shepherd,OR,90,86.4,,16,135,140,145,145,77.5,82.5,-95,82.5,147.5,160,170,170,397.5,SBD,Raw,M,Juniors 16-17
2,Josh Uriu,ID,90,84.2,,17,125,-150,-150,125,52.5,60,65,65,147.5,160,-170,160,350,SBD,Raw,M,Juniors 16-17
1,Colton Grimm,ID,90,86.8,,23,227.5,237.5,,237.5,-137.5,137.5,-145,137.5,267.5,282.5,-297.5,282.5,657.5,SBD,Raw,M,Juniors 20-23
DQ,Julian Carrillo,OR,100,93.6,,18,162.5,177.5,192.5,192.5,-115,-115,-117.5,,212.5,-220,-220,212.5,,SBD,Raw,M,Juniors 18-19
1,Austin Creek,OR,100,98.6,,21,220,-225,-225,220,147.5,155,-170,155,220,-227.5,-237.5,220,595,SBD,Raw,M,Juniors 20-23
1,Jesse Lockett,ID,110,107.2,,16,165,-182.5,192.5,192.5,-102.5,107.5,-120,107.5,182.5,205,227.5,227.5,527.5,SBD,Raw,M,Juniors 16-17
1,Bryan Terry,ID,110,107.2,,21,215,230,250,250,125,142.5,-157.5,142.5,225,250,265,265,657.5,SBD,Raw,M,Juniors 20-23
1,Benjamin George,OR,125,124,,14,125,135,142.5,142.5,57.5,67.5,75,75,127.5,142.5,155,155,372.5,SBD,Raw,M,Juniors 13-15
1,Jonathan Eldredge,ID,82.5,82.2,,33,187.5,195,202.5,202.5,135,140,-142.5,140,230,240,247.5,247.5,590,SBD,Raw,M,Open
2,Ethan Snyder,OR,82.5,82.4,,25,60,70,85,85,60,77.5,87.5,87.5,165,182.5,190,190,362.5,SBD,Raw,M,Open
1,Micah Neely,ID,100,96.8,,34,217.5,230,235,235,185,195,200,200,232.5,247.5,-265,247.5,682.5,SBD,Raw,M,Open
2,Jaret Hadfield,ID,100,99.4,,30,187.5,195,205,205,140,147.5,-157.5,147.5,240,250,260,260,612.5,SBD,Raw,M,Open
1,Bryan Terry,ID,110,107.2,,21,215,230,250,250,125,142.5,-157.5,142.5,225,250,265,265,657.5,SBD,Raw,M,Open
1,Antonio Corona,ID,125,118.2,,37,205,212.5,217.5,217.5,142.5,155,162.5,162.5,215,227.5,-235,227.5,607.5,SBD,Raw,M,Open
2,Francisco Villegas,OR,125,121,,26,180,197.5,207.5,207.5,127.5,145,-147.5,145,177.5,200,212.5,212.5,565,SBD,Raw,M,Open
1,Daniel Britton,ID,82.5,81.8,,41,152.5,-160,160,160,-107.5,107.5,-115,107.5,185,190,200,200,467.5,SBD,Raw,M,Masters 40-44
1,Spencer Haro,ID,82.5,82.2,,13,75,92.5,-97.5,92.5,32.5,40,42.5,42.5,82.5,100,115,115,250,SBD,Wraps,F,Juniors 13-15
1,Izach Juinio,UT,67.5,66.2,,18,175,-190,190,190,75,85,-92.5,85,-175,190,197.5,197.5,472.5,SBD,Wraps,M,Juniors 18-19
2,Elijah Riggs,UT,67.5,66.2,,18,-167.5,167.5,177.5,177.5,112.5,120,125,125,157.5,167.5,-182.5,167.5,470,SBD,Wraps,M,Juniors 18-19
1,Joey Burkman,UT,75,74.4,,19,-197.5,197.5,-205,197.5,120,125,-127.5,125,182.5,192.5,200,200,522.5,SBD,Wraps,M,Juniors 18-19
1,Matthew Roeser,OR,82.5,82,,20,195,205,-217.5,205,-112.5,-112.5,127.5,127.5,225,240,-250,240,572.5,SBD,Wraps,M,Juniors 20-23
1,Joseph Lopez #1,OR,140,129.8,,19,227.5,-232.5,-237.5,227.5,125,130,-137.5,130,220,-227.5,227.5,227.5,585,SBD,Wraps,M,Juniors 18-19
1,David Rangel,OR,90,89,,28,227.5,242.5,-272.5,242.5,142.5,152.5,-165,152.5,227.5,240,-250,240,635,SBD,Wraps,M,Open
1,Brayden Eiland,AL,110,108.8,,23,220,237.5,250,250,120,130,-135,130,245,262.5,272.5,272.5,652.5,SBD,Wraps,M,Open
DQ,Luis Martinez,ID,110,108.8,,33,-220,220,232.5,232.5,142.5,-152.5,-152.5,142.5,-227.5,-227.5,-227.5,,,SBD,Wraps,M,Open
1,Wing Chan,OR,60,59.8,,38,137.5,142.5,145,145,82.5,87.5,-95,87.5,145,155,163,163,395.5,SBD,Wraps,M,Submasters 35-39
1,Robert Figueroa,OR,100,100,,30,307.5,-325,325,325,167.5,182.5,,182.5,267.5,-280,280,280,787.5,SBD,Single-ply,M,Open
1,Kyle Nordstrom,OR,110,109.8,,36,307.5,332.5,-345,332.5,250,275,282.5,282.5,307.5,340,350.5,350.5,965.5,SBD,Single-ply,M,Open
1,Anna Tamez,OR,60,60,,34,,,,,52.5,57.5,62.5,62.5,,,,,62.5,B,Raw,F,Open
1,Cindy Shockman,OR,75,74.4,,53,,,,,112.5,117.5,120,120,,,,,120,B,Raw,F,Open
1,Cindy Slone-Martin,OR,82.5,81.8,,41,,,,,97.5,102.5,105,105,,,,,105,B,Raw,F,Open
1,Cindy Shockman,OR,75,74.4,,53,,,,,112.5,117.5,120,120,,,,,120,B,Raw,F,Masters 50-54
1,Cindy Slone-Martin,OR,82.5,81.8,,41,,,,,97.5,102.5,105,105,,,,,105,B,Raw,F,Masters 40-44
1,Damian Corona,ID,82.5,76.8,,15,,,,,62.5,70,-77.5,70,,,,,70,B,Raw,M,Juniors 13-15
1,Jake Brown,ID,90,90,,33,,,,,172.5,177.5,-182.5,177.5,,,,,177.5,B,Raw,M,Open
1,Mike McElroy,ID,140,137.2,,38,,,,,232.5,242.5,247.5,247.5,,,,,247.5,B,Raw,M,Open
1,Wing Chan,OR,60,59.8,,38,,,,,82.5,87.5,-95,87.5,,,,,87.5,B,Raw,M,Submasters 35-39
1,Anna Tamez,OR,60,60,,34,,,,,,,,,120,127.5,-145,127.5,127.5,D,Raw,F,Open
1,Cindy Shockman,OR,75,74.4,,53,,,,,,,,,165,172.5,177.5,177.5,177.5,D,Raw,F,Open
1,Cindy Slone-Martin,OR,82.5,81.8,,41,,,,,,,,,192.5,205,-212.5,205,205,D,Raw,F,Open
1,Cindy Shockman,OR,75,74.4,,53,,,,,,,,,165,172.5,177.5,177.5,177.5,D,Raw,F,Masters 50-54
1,Cindy Slone-Martin,OR,82.5,81.8,,41,,,,,,,,,192.5,205,-212.5,205,205,D,Raw,F,Masters 40-44
1,Damian Corona,ID,82.5,76.8,,15,,,,,,,,,115,125,135,135,135,D,Raw,M,Juniors 13-15
1,Wing Chan,OR,60,59.8,,38,,,,,,,,,145,155,163,163,163,D,Raw,M,Submasters 35-39
1,Mike Clason,OR,110,101,,67,,,,,,,,,195,210,227.5,227.5,227.5,D,Raw,M,Masters 65-69
