Division,WeightClassKg,Place,Name,Team,BodyweightKg,Best3SquatKg,Best3BenchKg,Best3DeadliftKg,TotalKg,Equipment,Event,Sex,BirthDate
Boys,55.79,1,William Harding,Buna,55.34,122.47,90.72,136.08,349.27,Single-ply,SBD,M,
Boys,55.79,2,Kirstin Dana,Kirbyville,53.3,115.67,70.31,127.01,312.98,Single-ply,SBD,M,
Boys,55.79,3,Brandon Sarver,Buna,55.34,104.33,61.23,120.2,285.76,Single-ply,SBD,M,
Boys,55.79,4,Blaine Fann,Woodville,55.34,83.91,61.23,102.06,247.21,Single-ply,SBD,M,
Boys,59.87,1,Tyler Greer,Woodville,58.51,197.31,90.72,172.37,460.4,Single-ply,SBD,M,
Boys,59.87,2,Jsaul Landaverde,San Augustine,59.87,122.47,88.45,142.88,353.8,Single-ply,SBD,M,
Boys,59.87,3,Blade Siau,Newton,59.87,115.67,68.04,127.01,310.71,Single-ply,SBD,M,
Boys,59.87,4,Ben Hicks,Woodville,58.51,81.65,49.9,86.18,217.72,Single-ply,SBD,M,
Boys,67.13,1,Jack Broughton,Buna,66.68,183.7,120.2,183.7,487.61,Single-ply,SBD,M,
Boys,67.13,2,Zah'dyn Brooks,Newton,65.77,174.63,97.52,161.03,433.18,Single-ply,SBD,M,
Boys,67.13,3,Larry Sanford,Woodville,63.5,163.29,86.18,147.42,396.89,Single-ply,SBD,M,
Boys,67.13,4,Adam Garner,Hemphill,66.59,149.69,97.52,147.42,394.63,Single-ply,SBD,M,
Boys,67.13,5,Ronnie Douglas,Woodville,66.68,136.08,63.5,176.9,376.48,Single-ply,SBD,M,
Boys,67.13,6,Judd Beatty,Newton,62.6,131.54,63.5,140.61,335.66,Single-ply,SBD,M,
Boys,67.13,DQ,Kyson Hensarling,Woodville,60.78,,,,,Single-ply,SBD,M,
Boys,67.13,DQ,LaDariun Ervin,Newton,61.23,142.88,,,,Single-ply,SBD,M,
Boys,74.84,1,Alejandro Anastacio,Kirbyville,74.84,161.03,104.33,163.29,428.64,Single-ply,SBD,M,
Boys,74.84,2,Gavin Simmons,Woodville,72.57,167.83,74.84,174.63,417.3,Single-ply,SBD,M,
Boys,74.84,3,Robby Phillips,Newton,70.31,142.88,97.52,167.83,408.23,Single-ply,SBD,M,
Boys,74.84,4,DeQuavious Kenebrew,Newton,72.12,131.54,81.65,158.76,371.95,Single-ply,SBD,M,
Boys,74.84,5,Bradley Mitchell,Hemphill,70.53,124.74,83.91,154.22,362.87,Single-ply,SBD,M,
Boys,74.84,6,Jacob Kelley,Kirbyville,71.21,136.08,72.57,136.08,344.73,Single-ply,SBD,M,
Boys,74.84,7,Ricky Ortiz #3,Hemphill,70.22,136.08,83.91,113.4,333.39,Single-ply,SBD,M,
Boys,74.84,8,Cristian Acosta,San Augustine,74.84,120.2,70.31,138.35,328.85,Single-ply,SBD,M,
Boys,74.84,9,Chris Spikes,Newton,67.59,122.47,58.97,129.27,310.71,Single-ply,SBD,M,
Boys,74.84,10,Jermiah Wise,Woodville,69.4,120.2,56.7,102.06,278.96,Single-ply,SBD,M,
Boys,74.84,DQ,Trinis Wash,Newton,67.59,,,,,Single-ply,SBD,M,
Boys,74.84,DQ,Elijah Cooper,Newton,74.84,,104.33,165.56,,Single-ply,SBD,M,
Boys,82.1,1,Kevorian Barnes,San Augustine,82.1,170.1,113.4,217.72,501.22,Single-ply,SBD,M,
Boys,82.1,2,Trey Hatton,Woodville,79.83,176.9,106.59,181.44,464.93,Single-ply,SBD,M,
Boys,82.1,3,Devin St Cyr,Kirbyville,80.74,154.22,106.59,167.83,428.64,Single-ply,SBD,M,
Boys,82.1,4,Carlos Acosta #2,San Augustine,82.1,133.81,106.59,188.24,428.64,Single-ply,SBD,M,
Boys,82.1,5,Kevon Paire,Woodville,80.29,142.88,102.06,167.83,412.77,Single-ply,SBD,M,
Boys,82.1,6,Leighton Foster,Newton,79.83,149.69,81.65,156.49,387.82,Single-ply,SBD,M,
Boys,82.1,7,Tyler Hatton,Woodville,78.93,140.61,90.72,136.08,367.41,Single-ply,SBD,M,
Boys,82.1,8,Jacob Fuselier,Newton,76.2,115.67,70.31,145.15,331.12,Single-ply,SBD,M,
Boys,82.1,9,Kyler Hensarling,Woodville,75.3,122.47,68.04,131.54,322.05,Single-ply,SBD,M,
Boys,89.81,1,Devin Dempsey,Kirbyville,89.81,179.17,104.33,181.44,464.93,Single-ply,SBD,M,
Boys,89.81,2,Parker O'Bannion,Kirbyville,89.36,190.51,95.25,151.95,437.72,Single-ply,SBD,M,
Boys,89.81,3,Tracy Hickman,Newton,83.91,158.76,90.72,176.9,426.38,Single-ply,SBD,M,
Boys,89.81,4,Trace Marks,Buna,84.37,142.88,97.52,140.61,381.02,Single-ply,SBD,M,
Boys,89.81,5,Landon Haynes,Woodville,82.55,163.29,77.11,133.81,374.21,Single-ply,SBD,M,
Boys,89.81,6,Jolon Garner,San Augustine,89.81,124.74,68.04,176.9,369.68,Single-ply,SBD,M,
Boys,89.81,7,Ja'Marion Hanks,Newton,89.81,120.2,81.65,158.76,360.61,Single-ply,SBD,M,
Boys,89.81,DQ,Jacob Ard,Buna,88.9,,,,,Single-ply,SBD,M,
Boys,89.81,DQ,Joe Harris,Hemphill,87.09,154.22,83.91,,,Single-ply,SBD,M,
Boys,99.79,1,Dre'Lyn Washington,Hemphill,96.34,247.21,136.08,251.74,635.03,Single-ply,SBD,M,
Boys,99.79,2,Bryce Westbrook,Newton,90.26,185.97,113.4,181.44,480.81,Single-ply,SBD,M,
Boys,99.79,3,Kason Adams,Newton,92.99,183.7,108.86,183.7,476.27,Single-ply,SBD,M,
Boys,99.79,4,Coltyn Foster,Newton,93.89,181.44,104.33,174.63,460.4,Single-ply,SBD,M,
Boys,99.79,5,Tim Lancaster,Kirbyville,95.25,176.9,79.38,167.83,424.11,Single-ply,SBD,M,
Boys,99.79,6,Tyriq Gatson,Newton,94.35,147.42,83.91,158.76,390.09,Single-ply,SBD,M,
Boys,109.77,1,Braylon Simmons,San Augustine,109.77,226.8,104.33,235.87,566.99,Single-ply,SBD,M,
Boys,109.77,2,Corey Clifton,San Augustine,109.77,170.1,108.86,226.8,505.76,Single-ply,SBD,M,
Boys,109.77,3,Tyler Limbrick,Woodville,108.86,185.97,92.99,217.72,496.68,Single-ply,SBD,M,
Boys,109.77,4,Jack Gore,Woodville,100.7,204.12,97.52,183.7,485.34,Single-ply,SBD,M,
Boys,109.77,5,Bo Conn,Hemphill,108.86,197.31,124.74,158.76,480.81,Single-ply,SBD,M,
Boys,109.77,6,Noah Nava,Newton,107.05,174.63,99.79,181.44,455.86,Single-ply,SBD,M,
Boys,109.77,7,Devin Nichols,Kirbyville,101.21,147.42,90.72,145.15,383.29,Single-ply,SBD,M,
Boys,109.77,8,Anthony Baker,Newton,102.06,129.27,77.11,129.27,335.66,Single-ply,SBD,M,
Boys,124.74,1,Destin Jackson,Newton,117.03,222.26,133.81,215.46,571.53,Single-ply,SBD,M,
Boys,124.74,2,Dez Watts,San Augustine,124.74,192.78,136.08,226.8,555.65,Single-ply,SBD,M,
Boys,124.74,3,Danny Glenn,Kirbyville,121.11,167.83,151.95,181.44,501.22,Single-ply,SBD,M,
Boys,124.74,4,Udarius Shankle,Woodville,119.75,195.04,81.65,185.97,462.66,Single-ply,SBD,M,
Boys,124.74,5,J'Kwon Brumley,Kirbyville,121.11,174.63,90.72,151.95,417.3,Single-ply,SBD,M,
Boys,124.74,6,Javian Holman,San Augustine,124.74,131.54,92.99,136.08,360.61,Single-ply,SBD,M,
Boys,124.74,7,Ethan Lott,Newton,117.48,124.74,79.38,142.88,347,Single-ply,SBD,M,
Boys,124.74+,1,Andrew Platt #2,Buna,148.32,306.17,183.7,235.87,725.75,Single-ply,SBD,M,
Boys,124.74+,2,Da'Quincy Wise,Woodville,127.01,247.21,129.27,217.72,594.21,Single-ply,SBD,M,
Boys,124.74+,3,Bryson Mansfield,Newton,130.18,195.04,99.79,195.04,489.88,Single-ply,SBD,M,
